<svg xmlns="http://www.w3.org/2000/svg" width="43.316" height="24.784" viewBox="0 0 43.316 24.784">
  <g transform="translate(-70.969 -469.633)">
    <g transform="translate(70.968 469.633)">
      <g>
        <g>
          <g>
            <rect width="37.505" height="24.477" fill="#7a7866"/>
          </g>
        </g>
      </g>
      <g transform="translate(38.629 20.097)">
        <g>
          <g>
            <path d="M128.16,501.729a2.344,2.344,0,1,0,2.344-2.342,2.347,2.347,0,0,0-2.344,2.342m.27,0A2.072,2.072,0,1,1,130.5,503.8,2.075,2.075,0,0,1,128.43,501.729Z" transform="translate(-128.16 -499.387)" fill="#7a7866"/>
          </g>
        </g>
      </g>
      <path d="M132.3,503.614h-.45l-.908-1.408h-.4v1.408h-.361v-3.1h.877a1.048,1.048,0,0,1,.7.213.734.734,0,0,1,.257.6.753.753,0,0,1-.187.5.945.945,0,0,1-.513.3l.989,1.483m-1.757-1.722H131a.68.68,0,0,0,.463-.155.49.49,0,0,0,.18-.388c0-.347-.213-.519-.634-.519h-.462Z" transform="translate(-90.186 -479.657)" fill="#7a7866"/>
    </g>
    <g transform="translate(70.971 473.444)">
      <g>
        <g>
          <g>
            <g>
              <g>
                <g>
                  <path d="M80.394,490.45a4.643,4.643,0,0,1-4.61-4.817c0-2.518,2.494-4.529,4.61-5.733,2.117,1.2,4.611,3.215,4.611,5.733a4.642,4.642,0,0,1-4.611,4.817m14.131-4.871c0-2.519,2.493-4.53,4.61-5.734,2.117,1.2,4.61,3.215,4.61,5.734a4.614,4.614,0,1,1-9.22,0m13.945-10.3a21.134,21.134,0,0,0-9.482,2.142,21.129,21.129,0,0,0-18.541,0,21.106,21.106,0,0,0-9.474-2.142v2.142a18.912,18.912,0,0,1,7.131,1.354c-2.316,1.549-4.61,3.9-4.61,6.86a7.009,7.009,0,0,0,6.953,6.909,6.871,6.871,0,0,0,6.791-6.909c0-2.963-2.13-5.312-4.447-6.86a18.4,18.4,0,0,1,13.853,0c-2.317,1.549-4.446,3.9-4.446,6.86a6.869,6.869,0,0,0,6.79,6.909,6.965,6.965,0,0,0,6.9-6.909c0-2.963-2.241-5.312-4.561-6.86a18.943,18.943,0,0,1,7.139-1.354Z" transform="translate(-70.973 -475.275)" fill="#fff"/>
                </g>
              </g>
            </g>
          </g>
        </g>
      </g>
    </g>
  </g>
</svg>
