<svg version="1.1" id="レイヤー_1" xmlns="http://www.w3.org/2000/svg" xmlns:xlink="http://www.w3.org/1999/xlink" x="0px" y="0px" viewBox="0 0 32 32" style="enable-background:new 0 0 32 32;" xml:space="preserve">
<style type="text/css">
	.st0{display:none;}
	.st1{display:inline;fill:#FFFFFF;}
	.st2{display:none;fill:#FFFFFF;}
	.st3{fill:#FFFFFF;}
</style>
<g transform="translate(191 508.299)" class="st0">
	<path class="st1" d="M-175-505.4c4.3,0,4.8,0,6.5,0.1c1,0,2,0.2,3,0.6c0.7,0.3,1.3,0.7,1.8,1.2
		c0.5,0.5,0.9,1.1,1.2,1.8c0.4,1,0.5,2,0.6,3c0.1,1.7,0.1,2.2,0.1,6.5s0,4.8-0.1,6.5c0,1-0.2,2-0.6,3c-0.3,0.7-0.7,1.3-1.2,1.8
		c-0.5,0.5-1.1,0.9-1.8,1.2c-1,0.4-2,0.5-3,0.6c-1.7,0.1-2.2,0.1-6.5,0.1c-4.3,0-4.8,0-6.5-0.1c-1,0-2-0.2-3-0.6
		c-0.7-0.3-1.3-0.7-1.8-1.2c-0.5-0.5-0.9-1.1-1.2-1.8c-0.4-1-0.5-2-0.6-3c-0.1-1.7-0.1-2.2-0.1-6.5s0-4.8,0.1-6.5c0-1,0.2-2,0.6-3
		c0.3-0.7,0.7-1.3,1.2-1.8c0.5-0.5,1.1-0.9,1.8-1.2c1-0.4,2-0.5,3-0.6C-179.8-505.4-179.3-505.4-175-505.4 M-175-508.3
		c-4.3,0-4.9,0-6.6,0.1c-1.3,0-2.6,0.3-3.9,0.7c-1.1,0.4-2,1-2.8,1.8c-0.8,0.8-1.4,1.8-1.8,2.8c-0.5,1.2-0.7,2.6-0.7,3.9
		c-0.1,1.7-0.1,2.3-0.1,6.6s0,4.9,0.1,6.6c0,1.3,0.3,2.6,0.7,3.9c0.4,1.1,1,2,1.8,2.8c0.8,0.8,1.8,1.4,2.8,1.8
		c1.2,0.5,2.6,0.7,3.9,0.7c1.7,0.1,2.3,0.1,6.6,0.1c4.3,0,4.9,0,6.6-0.1c1.3,0,2.6-0.3,3.9-0.7c1.1-0.4,2-1,2.8-1.8
		c0.8-0.8,1.4-1.8,1.8-2.8c0.5-1.2,0.7-2.6,0.7-3.9c0.1-1.7,0.1-2.3,0.1-6.6s0-4.9-0.1-6.6c0-1.3-0.3-2.6-0.7-3.9
		c-0.4-1.1-1-2-1.8-2.8c-0.8-0.8-1.8-1.4-2.8-1.8c-1.2-0.5-2.6-0.7-3.9-0.7C-170.1-508.3-170.7-508.3-175-508.3z"/>
	<path class="st1" d="M-175-500.5c-4.5,0-8.2,3.7-8.2,8.2c0,0,0,0,0,0c0,4.5,3.7,8.2,8.2,8.2l0,0
		c4.5,0,8.2-3.7,8.2-8.2c0,0,0,0,0,0C-166.8-496.8-170.5-500.5-175-500.5L-175-500.5z M-175-487c-2.9,0-5.3-2.4-5.3-5.3c0,0,0,0,0,0
		c0-2.9,2.4-5.3,5.3-5.3l0,0c2.9,0,5.3,2.4,5.3,5.3c0,0,0,0,0,0C-169.7-489.4-172.1-487-175-487L-175-487L-175-487z"/>
	<ellipse class="st1" cx="-166.5" cy="-500.8" rx="1.9" ry="1.9"/>
</g>
<path class="st2" d="M10.1,29c12.1,0,18.7-10,18.7-18.7c0-0.3,0-0.6,0-0.8C30,8.5,31.1,7.4,32,6.1
	c-1.2,0.5-2.5,0.9-3.8,1c1.4-0.8,2.4-2.1,2.9-3.6c-1.3,0.8-2.7,1.3-4.2,1.6C25.7,3.7,24,3,22.2,3c-3.6,0-6.6,2.9-6.6,6.6
	c0,0.5,0.1,1,0.2,1.5C10.5,10.8,5.6,8.3,2.2,4.2c-0.6,1-0.9,2.1-0.9,3.3c0,2.2,1.1,4.2,2.9,5.5c-1,0-2.1-0.3-3-0.8c0,0,0,0.1,0,0.1
	c0,3.1,2.2,5.8,5.3,6.4c-0.6,0.2-1.1,0.2-1.7,0.2c-0.4,0-0.8,0-1.2-0.1c0.9,2.7,3.3,4.5,6.1,4.6c-2.3,1.8-5.2,2.8-8.2,2.8
	c-0.5,0-1,0-1.6-0.1C3,28,6.5,29,10.1,29"/>
<path class="st3" d="M10.1,29c12.1,0,18.7-10,18.7-18.7c0-0.3,0-0.6,0-0.8C30,8.5,31.1,7.4,32,6.1
	c-1.2,0.5-2.5,0.9-3.8,1c1.4-0.8,2.4-2.1,2.9-3.6c-1.3,0.8-2.7,1.3-4.2,1.6C25.7,3.7,24,3,22.2,3c-3.6,0-6.6,2.9-6.6,6.6
	c0,0.5,0.1,1,0.2,1.5C10.5,10.8,5.6,8.3,2.2,4.2c-0.6,1-0.9,2.1-0.9,3.3c0,2.2,1.1,4.2,2.9,5.5c-1,0-2.1-0.3-3-0.8c0,0,0,0.1,0,0.1
	c0,3.1,2.2,5.8,5.3,6.4c-0.6,0.2-1.1,0.2-1.7,0.2c-0.4,0-0.8,0-1.2-0.1c0.9,2.7,3.3,4.5,6.1,4.6c-2.3,1.8-5.2,2.8-8.2,2.8
	c-0.5,0-1,0-1.6-0.1C3,28,6.5,29,10.1,29"/>
</svg>
