<svg xmlns="http://www.w3.org/2000/svg" xmlns:xlink="http://www.w3.org/1999/xlink" width="112.679" height="40.818" viewBox="0 0 112.679 40.818">
  <defs>
    <clipPath id="clip-path">
      <rect id="長方形_456" data-name="長方形 456" width="33" height="19" rx="1" transform="translate(-0.172 -0.172)" fill="#fff"/>
    </clipPath>
  </defs>
  <g id="icon3" transform="translate(-864.769 -1369.467)">
    <g id="man" transform="translate(196.825 -3450.137)">
      <g id="グループ_216" data-name="グループ 216" transform="translate(0 11)">
        <rect id="長方形_433" data-name="長方形 433" width="7" height="15" rx="2" transform="translate(747 4824)" fill="#228d22"/>
        <rect id="長方形_434" data-name="長方形 434" width="2.28" height="6.839" rx="1.14" transform="translate(749.303 4819.269)" fill="#228d22"/>
        <rect id="長方形_435" data-name="長方形 435" width="2.28" height="12.988" rx="1.14" transform="matrix(0.819, 0.574, -0.574, 0.819, 759.756, 4815.279)" fill="#228d22"/>
        <rect id="長方形_437" data-name="長方形 437" width="2.28" height="12.988" rx="1.14" transform="translate(747.991 4835.57)" fill="#228d22"/>
        <rect id="長方形_438" data-name="長方形 438" width="2.28" height="3.645" rx="1.14" transform="translate(746.169 4848.558) rotate(-90)" fill="#228d22"/>
        <rect id="長方形_437-2" data-name="長方形 437" width="2.28" height="12.988" rx="1.14" transform="translate(753.008 4848.558) rotate(180)" fill="#228d22"/>
        <rect id="長方形_438-2" data-name="長方形 438" width="2.28" height="3.645" rx="1.14" transform="translate(751.185 4848.558) rotate(-90)" fill="#228d22"/>
        <rect id="長方形_439" data-name="長方形 439" width="2.279" height="12.988" rx="1.14" transform="matrix(-0.819, 0.574, -0.574, -0.819, 749.086, 4825.918)" fill="#228d22"/>
        <ellipse id="楕円形_50" data-name="楕円形 50" cx="4.5" cy="5" rx="4.5" ry="5" transform="translate(746 4813)" fill="#228d22"/>
      </g>
      <g id="グループ_217" data-name="グループ 217" transform="translate(19 11)">
        <rect id="長方形_433-2" data-name="長方形 433" width="7" height="15" rx="2" transform="translate(747 4824)" fill="#228d22"/>
        <rect id="長方形_434-2" data-name="長方形 434" width="2.28" height="6.839" rx="1.14" transform="translate(749.303 4819.269)" fill="#228d22"/>
        <rect id="長方形_435-2" data-name="長方形 435" width="2.28" height="12.988" rx="1.14" transform="matrix(0.819, 0.574, -0.574, 0.819, 759.756, 4815.279)" fill="#228d22"/>
        <rect id="長方形_437-3" data-name="長方形 437" width="2.28" height="12.988" rx="1.14" transform="translate(747.991 4835.57)" fill="#228d22"/>
        <rect id="長方形_438-3" data-name="長方形 438" width="2.28" height="3.645" rx="1.14" transform="translate(746.169 4848.558) rotate(-90)" fill="#228d22"/>
        <rect id="長方形_437-4" data-name="長方形 437" width="2.28" height="12.988" rx="1.14" transform="translate(753.008 4848.558) rotate(180)" fill="#228d22"/>
        <rect id="長方形_438-4" data-name="長方形 438" width="2.28" height="3.645" rx="1.14" transform="translate(751.185 4848.558) rotate(-90)" fill="#228d22"/>
        <rect id="長方形_439-2" data-name="長方形 439" width="2.279" height="12.988" rx="1.14" transform="matrix(-0.819, 0.574, -0.574, -0.819, 749.086, 4825.918)" fill="#228d22"/>
        <ellipse id="楕円形_50-2" data-name="楕円形 50" cx="4.5" cy="5" rx="4.5" ry="5" transform="translate(746 4813)" fill="#228d22"/>
      </g>
    </g>
    <g id="icon" transform="translate(-41 5.423)">
      <g id="電波のアイコン" transform="translate(944 1358.439)">
        <path id="パス_3714" data-name="パス 3714" d="M13.945,2.84a9.721,9.721,0,0,0-13.734,0A.72.72,0,0,0,1.228,3.858a8.282,8.282,0,0,1,11.7,0A.719.719,0,1,0,13.945,2.84Z" transform="translate(-0.629 6) rotate(45)" fill="#228d22" stroke="#228d22" stroke-width="0.5"/>
        <path id="パス_3715" data-name="パス 3715" d="M.211,1.788A.719.719,0,0,0,1.228,2.806a4.682,4.682,0,0,1,6.613,0A.719.719,0,0,0,8.858,1.788,6.12,6.12,0,0,0,.211,1.788Z" transform="translate(-1.867 10.877) rotate(45)" fill="#228d22" stroke="#228d22" stroke-width="0.5"/>
      </g>
      <rect id="長方形_454" data-name="長方形 454" width="36" height="24" rx="2" transform="translate(905.769 1375.862)" fill="#afafaf"/>
      <rect id="長方形_455" data-name="長方形 455" width="29" height="18" rx="1.5" transform="translate(909 1378.862)" fill="#fff"/>
      <g id="マスクグループ_239" data-name="マスクグループ 239" transform="translate(908.171 1378.034)" clip-path="url(#clip-path)">
        <g id="グループ_411" data-name="グループ 411" transform="translate(7.322 2.241)">
          <rect id="長方形_433-3" data-name="長方形 433" width="5.617" height="12.036" rx="2" transform="translate(5.802 8.826)" fill="#228d22"/>
          <rect id="長方形_434-3" data-name="長方形 434" width="1.829" height="5.487" rx="0.915" transform="translate(7.65 5.03)" fill="#228d22"/>
          <rect id="長方形_435-3" data-name="長方形 435" width="1.829" height="10.421" rx="0.915" transform="matrix(0.819, 0.574, -0.574, 0.819, 16.037, 1.829)" fill="#228d22"/>
          <rect id="長方形_437-5" data-name="長方形 437" width="1.829" height="10.421" rx="0.915" transform="translate(6.598 18.109)" fill="#228d22"/>
          <rect id="長方形_438-5" data-name="長方形 438" width="1.829" height="2.924" rx="0.915" transform="translate(5.136 28.531) rotate(-90)" fill="#228d22"/>
          <rect id="長方形_437-6" data-name="長方形 437" width="1.829" height="10.421" rx="0.915" transform="translate(10.623 28.531) rotate(180)" fill="#228d22"/>
          <rect id="長方形_438-6" data-name="長方形 438" width="1.829" height="2.924" rx="0.915" transform="translate(9.16 28.531) rotate(-90)" fill="#228d22"/>
          <rect id="長方形_439-3" data-name="長方形 439" width="1.829" height="10.421" rx="0.914" transform="matrix(-0.819, 0.574, -0.574, -0.819, 7.476, 10.365)" fill="#228d22"/>
          <ellipse id="楕円形_50-3" data-name="楕円形 50" cx="3.611" cy="4.012" rx="3.611" ry="4.012" transform="translate(5)" fill="#228d22"/>
        </g>
      </g>
      <rect id="長方形_457" data-name="長方形 457" width="4" height="5" rx="1" transform="translate(921.769 1398.862)" fill="#afafaf"/>
      <rect id="長方形_458" data-name="長方形 458" width="13" height="2" rx="1" transform="translate(917.769 1402.862)" fill="#afafaf"/>
    </g>
    <g id="_" data-name="+" transform="translate(74)">
      <line id="線_321" data-name="線 321" x2="10.975" transform="translate(844 1391.5)" fill="none" stroke="#444" stroke-linecap="round" stroke-width="3"/>
      <line id="線_322" data-name="線 322" y2="10.975" transform="translate(849.487 1386.013)" fill="none" stroke="#444" stroke-linecap="round" stroke-width="3"/>
    </g>
  </g>
</svg>
