<svg xmlns="http://www.w3.org/2000/svg" xmlns:xlink="http://www.w3.org/1999/xlink" width="156.822" height="71.042" viewBox="0 0 156.822 71.042">
  <defs>
    <clipPath id="clip-path">
      <rect id="長方形_445" data-name="長方形 445" width="156.822" height="31.45" fill="#e8d018"/>
    </clipPath>
    <clipPath id="clip-path-2">
      <rect id="長方形_430" data-name="長方形 430" width="32.984" height="23.687" fill="none"/>
    </clipPath>
  </defs>
  <g id="logo_sp" transform="translate(51.327 73.355)">
    <g id="logo" transform="translate(-51.327 -73.355)" clip-path="url(#clip-path)">
      <path id="パス_4092" data-name="パス 4092" d="M6.034,4.712a37.258,37.258,0,0,0,8.923-2.624A3.219,3.219,0,0,1,16.493,1.6c1.049,0,4.086,2.887,4.086,3.938,0,.262-.263.486-.45.674-1.35,1.275-2.923,4.648-3.824,6.373a1.452,1.452,0,0,0-.225.675c0,.637.45.75,1.462,1.05.826.224,1.5.487,1.725.487.562,0,.751-.3.862-.825a29.178,29.178,0,0,0,.337-3.037c0-.3-.038-.561-.038-.862a.684.684,0,0,1,.638-.749c.3,0,3.449.636,5.324,1.012.449.074.9.3.9.561,0,.188-.187.375-.638.787-.187.15-.187.637-.261,1.012-.15.936-.488,2.437-.75,3.411a1.7,1.7,0,0,0-.112.6,1.246,1.246,0,0,0,.862,1.2c1.086.561,2.135,1.162,3.222,1.762.376.187.825.486.825.975,0,.936-2.774,5.1-3.673,5.1-.263,0-.787-.486-1.087-.787a1.47,1.47,0,0,1-.224-.187c-.452-.412-1.762-1.575-2.324-1.575-.412,0-.637.375-.9.824a25.928,25.928,0,0,1-5.248,6.036,9.383,9.383,0,0,1-2.324,1.5c-.712,0-4.31-2.4-4.31-3.336,0-.375.6-.712.9-.862,3.485-1.836,6.335-5.623,6.335-6.448,0-.675-.676-.9-1.426-1.161a10.71,10.71,0,0,0-2.249-.637,1.167,1.167,0,0,0-1.05.75c-1.537,3.186-3.486,7.834-7.647,7.834-3.147,0-5.21-2.7-5.21-5.7,0-4.236,3.749-7.272,7.572-8.21a16.112,16.112,0,0,1,2.286-.374c.826-.075,1.012-.675,1.276-1.237a30.691,30.691,0,0,0,1.425-3.112.393.393,0,0,0-.412-.411,2.191,2.191,0,0,0-.826.3,14.642,14.642,0,0,1-3.486,1.313c-1.049,0-1.687-1.351-2.062-2.175A10.278,10.278,0,0,1,4.8,5.236c0-.3.224-.375,1.235-.524m.975,14.281c-.488,0-2.473,1.236-2.473,2.811,0,.337.188.75.561.75.863,0,2.324-2.848,2.324-3.224,0-.224-.187-.336-.412-.336" transform="translate(0 -0.1)" fill="#e8d018"/>
      <path id="パス_4093" data-name="パス 4093" d="M36.42,24.628A135.141,135.141,0,0,1,45.153,7.8C46.728,5.36,48.415,2.924,49.876.412,49.99.187,50.1,0,50.4,0a20.026,20.026,0,0,1,3.336,2.249l.488.374c.712.525,1.123.862,1.123,1.2s-.223.486-.523.561c-.975.188-.975.375-1.725,1.312a55.2,55.2,0,0,0-3.9,5.435,1.394,1.394,0,0,0-.263.6.559.559,0,0,0,.487.487,2.842,2.842,0,0,0,.6-.112,5.68,5.68,0,0,1,1.35-.151c3.262,0,5.324,1.687,5.324,5.024a36.194,36.194,0,0,1-.9,5.585,8.187,8.187,0,0,0-.188,1.424c0,.376.188.75.636.75,1.313,0,4.836-4.235,5.7-5.36.637-.824.975-1.236,1.461-1.236.751,0,2.512,3.973,2.512,4.648,0,.712-2.474,3-3.073,3.561-2.286,2.062-5.1,4.236-8.322,4.236-3.036,0-4.31-2.548-4.31-5.247a24.172,24.172,0,0,1,.524-4.349,20.162,20.162,0,0,0,.376-2.773c0-.638-.225-1.05-.9-1.05a6.512,6.512,0,0,0-2.849.9A8.058,8.058,0,0,0,44.1,21.516,38.524,38.524,0,0,0,40.879,29.2c-.149.562-.3,1.124-.973,1.124a13.677,13.677,0,0,1-3.937-1.5c-.637-.337-1.05-.525-1.05-.862a34.345,34.345,0,0,1,1.5-3.336" transform="translate(-2.19 0)" fill="#e8d018"/>
      <path id="パス_4094" data-name="パス 4094" d="M95.113,4.732c1.125,0,2.249-.037,3.374-.037,1.5,0,2.361.45,2.361,2.062,0,1.275-.037,2.549-.037,3.786v12.67c0,1.087.075,2.174.075,3.3,0,1.575-.037,1.762-1.8,1.762H96.95c-1.425,0-1.575-.15-1.725-.75-.225-.824-.75-.824-1.987-.824H78.507c-.487.037-1.012.075-1.536.075-.9,0-1.013-.488-1.013-1.8V22.313c0-1.124.076-1.462.862-1.462.487,0,1.237.075,1.8.075,1.162.037,2.324.037,3.523.037H93.876A1.167,1.167,0,0,0,95.038,19.8V11.629a1.168,1.168,0,0,0-1.161-1.162H82.105c-1.086,0-2.174,0-3.223.037-.675,0-1.312.075-1.949.075-.825,0-1.013-.337-1.013-2.024V6.307c0-1.425.188-1.65.862-1.65.562,0,1.126.075,1.65.075Z" transform="translate(-4.762 -0.292)" fill="#e8d018"/>
      <path id="パス_4095" data-name="パス 4095" d="M118.827,20.311a78.092,78.092,0,0,1,12.9,4.085c.636.262.824.337.824.751,0,.936-1.162,5.022-2.212,5.022a2.826,2.826,0,0,1-.937-.336,60.772,60.772,0,0,0-17.355-4.873c-.637-.075-1.162-.112-1.162-.862a24.143,24.143,0,0,1,.9-3.6,1.485,1.485,0,0,1,1.463-1.2,54.981,54.981,0,0,1,5.585,1.012m2.249-9.034a76.178,76.178,0,0,1,7.647,2.549c.375.15.636.3.636.75a9.227,9.227,0,0,1-.75,2.773l-.224.562c-.375.936-.637,1.575-1.275,1.575a3.543,3.543,0,0,1-1.011-.338,49.668,49.668,0,0,0-11.959-3.673c-.637-.112-1.236-.187-1.236-.861a16.455,16.455,0,0,1,.711-3c.263-.861.562-1.836,1.387-1.836.638,0,5.135,1.237,6.073,1.5m-5.96-8.4c.112-.187.187-.411.3-.6.412-.786.75-1.461,1.312-1.461,1.125,0,6.785,1.986,8.1,2.511a37.65,37.65,0,0,1,3.862,1.612.737.737,0,0,1,.337.637,10.343,10.343,0,0,1-1.012,3.036c-.3.675-.712,1.687-1.275,1.687a6.211,6.211,0,0,1-1.461-.525A69.505,69.505,0,0,0,115.153,6.14c-.374-.112-.862-.224-.862-.674a11.565,11.565,0,0,1,.825-2.587" transform="translate(-6.955 -0.051)" fill="#e8d018"/>
      <path id="パス_4096" data-name="パス 4096" d="M154.437,10.486c.75,0,2.512,0,3.186-.075a2.913,2.913,0,0,1,.563-.075c.562,0,1.649.975,2.136,1.461a1.283,1.283,0,0,1,.525.975c0,.562-.262.562-.562,3.074l-.674,5.81v.112a.7.7,0,0,0,.711.675h.263c1.349,0,2.7-.075,4.047-.075.862,0,1.012.411,1.012,1.574v1.5c0,1.125-.075,1.8-1.124,1.8-1.313,0-2.624-.037-3.936-.037h-15.07c-1.274,0-2.961.075-3.711.075-1.05,0-1.125-.825-1.125-1.837V23.83c0-1.125.187-1.461.975-1.461.526,0,2.549.075,3.861.075h8.172a.989.989,0,0,0,1.012-.9l.6-5.061c0-.112.037-.524.037-.6,0-.6-.6-.675-.975-.675h-4.273c-1.387,0-2.812.075-3.936.075-.862,0-1.012-.487-1.012-1.687V11.948c0-1.126.112-1.537.9-1.537.525,0,2.549.075,3.973.075Z" transform="translate(-8.824 -0.648)" fill="#e8d018"/>
    </g>
    <g id="m" transform="translate(10.673 -25.999)" clip-path="url(#clip-path-2)">
      <path id="パス_4056" data-name="パス 4056" d="M32.895,16.385V8.169C32.895,3.1,29.949,0,25.53,0a10.854,10.854,0,0,0-6.695,2.327c-.447.366-.67.548-.893.548-.268,0-.491-.228-.893-.684A7.006,7.006,0,0,0,11.694,0,9.482,9.482,0,0,0,5.758,2.054a1.345,1.345,0,0,1-.669.319c-.224,0-.313-.274-.357-.867C4.687.457,4.508.273,3.481.273H1.295C.268.273,0,.457,0,1.415c0,.319.09,4.107.09,6.161v8.808c0,2.054-.09,5.842-.09,6.161,0,.959.268,1.141,1.295,1.141H31.689c1.027,0,1.295-.182,1.295-1.141,0-.32-.089-4.108-.089-6.161" transform="translate(0 0)" fill="#e8d018"/>
      <path id="パス_4057" data-name="パス 4057" d="M48.268,18.049c0,3.17-1.813,5.74-4.049,5.74s-4.049-2.57-4.049-5.74,1.813-5.74,4.049-5.74,4.049,2.57,4.049,5.74" transform="translate(-20.606 -6.179)" fill="#fff"/>
      <path id="パス_4058" data-name="パス 4058" d="M52.354,20.755c0,1.687-1.009,3.055-2.254,3.055s-2.254-1.368-2.254-3.055S48.855,17.7,50.1,17.7s2.254,1.368,2.254,3.055" transform="translate(-24.544 -8.885)" fill="#222"/>
      <path id="パス_4059" data-name="パス 4059" d="M27.594,18.049c0,3.17-1.813,5.74-4.049,5.74s-4.049-2.57-4.049-5.74,1.813-5.74,4.049-5.74,4.049,2.57,4.049,5.74" transform="translate(-10.001 -6.179)" fill="#fff"/>
      <path id="パス_4060" data-name="パス 4060" d="M31.68,20.755c0,1.687-1.009,3.055-2.254,3.055s-2.254-1.368-2.254-3.055S28.181,17.7,29.426,17.7s2.254,1.368,2.254,3.055" transform="translate(-13.939 -8.885)" fill="#222"/>
    </g>
  </g>
</svg>
