<svg xmlns="http://www.w3.org/2000/svg" width="40.854" height="35.558" viewBox="0 0 40.854 35.558">
  <g id="man" transform="translate(-739.769 -4824)">
    <g id="グループ_216" data-name="グループ 216" transform="translate(0 11)">
      <rect id="長方形_433" data-name="長方形 433" width="7" height="15" rx="2" transform="translate(747 4824)" fill="#267aaf"/>
      <rect id="長方形_434" data-name="長方形 434" width="2.28" height="6.839" rx="1.14" transform="translate(749.303 4819.269)" fill="#267aaf"/>
      <rect id="長方形_435" data-name="長方形 435" width="2.28" height="12.988" rx="1.14" transform="matrix(0.819, 0.574, -0.574, 0.819, 759.756, 4815.279)" fill="#267aaf"/>
      <rect id="長方形_437" data-name="長方形 437" width="2.28" height="12.988" rx="1.14" transform="translate(747.991 4835.57)" fill="#267aaf"/>
      <rect id="長方形_438" data-name="長方形 438" width="2.28" height="3.645" rx="1.14" transform="translate(746.169 4848.558) rotate(-90)" fill="#267aaf"/>
      <rect id="長方形_437-2" data-name="長方形 437" width="2.28" height="12.988" rx="1.14" transform="translate(753.008 4848.558) rotate(180)" fill="#267aaf"/>
      <rect id="長方形_438-2" data-name="長方形 438" width="2.28" height="3.645" rx="1.14" transform="translate(751.185 4848.558) rotate(-90)" fill="#267aaf"/>
      <rect id="長方形_439" data-name="長方形 439" width="2.279" height="12.988" rx="1.14" transform="matrix(-0.819, 0.574, -0.574, -0.819, 749.086, 4825.918)" fill="#267aaf"/>
      <ellipse id="楕円形_50" data-name="楕円形 50" cx="4.5" cy="5" rx="4.5" ry="5" transform="translate(746 4813)" fill="#267aaf"/>
    </g>
    <g id="グループ_217" data-name="グループ 217" transform="translate(19 11)">
      <rect id="長方形_433-2" data-name="長方形 433" width="7" height="15" rx="2" transform="translate(747 4824)" fill="#267aaf"/>
      <rect id="長方形_434-2" data-name="長方形 434" width="2.28" height="6.839" rx="1.14" transform="translate(749.303 4819.269)" fill="#267aaf"/>
      <rect id="長方形_435-2" data-name="長方形 435" width="2.28" height="12.988" rx="1.14" transform="matrix(0.819, 0.574, -0.574, 0.819, 759.756, 4815.279)" fill="#267aaf"/>
      <rect id="長方形_437-3" data-name="長方形 437" width="2.28" height="12.988" rx="1.14" transform="translate(747.991 4835.57)" fill="#267aaf"/>
      <rect id="長方形_438-3" data-name="長方形 438" width="2.28" height="3.645" rx="1.14" transform="translate(746.169 4848.558) rotate(-90)" fill="#267aaf"/>
      <rect id="長方形_437-4" data-name="長方形 437" width="2.28" height="12.988" rx="1.14" transform="translate(753.008 4848.558) rotate(180)" fill="#267aaf"/>
      <rect id="長方形_438-4" data-name="長方形 438" width="2.28" height="3.645" rx="1.14" transform="translate(751.185 4848.558) rotate(-90)" fill="#267aaf"/>
      <rect id="長方形_439-2" data-name="長方形 439" width="2.279" height="12.988" rx="1.14" transform="matrix(-0.819, 0.574, -0.574, -0.819, 749.086, 4825.918)" fill="#267aaf"/>
      <ellipse id="楕円形_50-2" data-name="楕円形 50" cx="4.5" cy="5" rx="4.5" ry="5" transform="translate(746 4813)" fill="#267aaf"/>
    </g>
  </g>
</svg>
