<svg version="1.1" id="layer01" xmlns="http://www.w3.org/2000/svg" xmlns:xlink="http://www.w3.org/1999/xlink" x="0px" y="0px" viewBox="0 0 188 188" style="enable-background:new 0 0 188 188;" xml:space="preserve">
<style type="text/css">
	.st0{fill:#0089D2;}
	.st1{fill:#5AA61F;}
	.st2{fill:#D39400;}
	.st3{fill:#B7001E;}
	.st4{fill:#25862A;}
	.st5{fill:#3D6726;}
	.st6{fill:#FFAD00;}
	.st7{fill:#E01F10;}
	.st8{fill:#F68E00;}
	.st9{fill:#0064AE;}
	.st10{fill:#830025;}
	.st11{fill:#0098D1;}
	.st12{fill:#E85200;}
	.st13{fill:#DB0015;}
	.st14{fill:#CD0068;}
	.st15{fill:#002555;}
	.st16{fill:#CD7D00;}
	.st17{fill:#003D76;}
</style>
<g id="group" transform="translate(353.55 20.711)">
	<g transform="translate(0 15.382)">
		<path class="st0" d="M-291.5,80.6c-1.1,1.2-2.5,2.2-4,2.7c-1.9,0.7-3.8,1-5.8,1c-2,0.1-4.1-0.4-5.8-1.4
			c-1.7-1-3.1-2.4-3.9-4.2c-1-2-1.5-4.2-1.4-6.5l0-1.7c-0.1-2.3,0.4-4.6,1.2-6.7c0.8-1.8,2.1-3.3,3.7-4.3c4.1-2.2,9-2,12.8,0.6
			c1.8,1.6,2.9,3.9,3.1,6.3l-5.1,0c-0.1-1.2-0.7-2.4-1.6-3.2c-1-0.7-2.1-1.1-3.3-1c-1.6-0.1-3.2,0.7-4.1,2.1c-1,1.8-1.5,3.9-1.4,6
			l0,1.6c-0.1,2.1,0.4,4.3,1.6,6.1c1.1,1.4,2.8,2.1,4.5,2c1.5,0.1,3-0.3,4.2-1.3l0-4.4l-4.8,0l0-3.9l10.1-0.1L-291.5,80.6z"/>
		<path class="st0" d="M-247.8,78.3l-9.3,0.1l-1.7,5.3l-5.6,0l9.4-25.7l4.9,0l9.8,25.6l-5.6,0L-247.8,78.3z
			 M-255.7,74l6.4,0l-3.3-9.6L-255.7,74z"/>
		<path class="st0" d="M-233.5,79.2l11.2-0.1l0,4.2l-16.5,0.1l-0.2-25.6l5.3,0L-233.5,79.2z"/>
		<path class="st0" d="M-206.8,76.5c0-0.9-0.4-1.8-1.1-2.3c-1.2-0.7-2.5-1.3-3.8-1.7c-1.5-0.4-3-1-4.4-1.7
			c-2.6-1.1-4.3-3.5-4.4-6.3c0-1.3,0.4-2.6,1.1-3.7c0.9-1.2,2-2,3.3-2.6c1.6-0.6,3.2-1,4.9-0.9c1.7,0,3.4,0.3,4.9,1
			c1.4,0.6,2.5,1.6,3.4,2.8c0.8,1.2,1.2,2.7,1.2,4.1l-5.3,0c0.1-1-0.4-2-1.1-2.7c-0.9-0.7-2-1-3.1-1c-1.1-0.1-2.1,0.2-3,0.8
			c-0.7,0.5-1.1,1.3-1.1,2.2c0,0.9,0.5,1.7,1.3,2.1c1.2,0.7,2.4,1.2,3.7,1.6c2.4,0.6,4.7,1.7,6.6,3.3c1.4,1.3,2.1,3.1,2.1,5
			c0.1,2.1-0.8,4-2.5,5.2c-2,1.4-4.4,2-6.8,1.9c-1.9,0-3.7-0.3-5.4-1c-1.5-0.6-2.8-1.6-3.7-2.9c-0.9-1.3-1.3-2.8-1.3-4.4l5.3,0
			c0,2.8,1.7,4.2,5.1,4.2c1,0.1,2.1-0.2,2.9-0.8C-207.2,78.2-206.8,77.4-206.8,76.5z"/>
	</g>
	<g transform="translate(11.746 15.815)">
		<path class="st1" d="M-293.8,67c0.3-0.5,0.7-1,1.2-1.5l-3.8-4.2c-1,0.9-1.8,2-2.4,3.1L-293.8,67z"/>
		<path class="st2" d="M-284.5,64c0.6,0.3,1.1,0.6,1.6,1l3.8-4.1c-1-0.9-2.1-1.6-3.4-2.1L-284.5,64z"/>
		<path class="st3" d="M-275.8,65.3l-5,2.5c0.2,0.6,0.4,1.2,0.5,1.8l5.6-0.5C-274.9,67.7-275.3,66.5-275.8,65.3"/>
		<path class="st4" d="M-281.2,67.1l5-2.5c-0.6-1.2-1.4-2.2-2.4-3.1l-3.8,4.1C-281.9,66-281.5,66.5-281.2,67.1"/>
		<path class="st5" d="M-294.8,70.6c0-0.1,0-0.2,0-0.3l-5.6-0.5c0,0.3,0,0.6,0,0.8c0,1.1,0.1,2.1,0.4,3.1l5.4-1.6
			C-294.8,71.7-294.8,71.2-294.8,70.6"/>
		<path class="st6" d="M-281.9,75.2c-0.4,0.5-0.9,0.9-1.4,1.3l3,4.8c1.1-0.7,2.1-1.7,2.9-2.7L-281.9,75.2z"/>
		<path class="st7" d="M-280.3,70.6c0,0.5-0.1,1-0.2,1.5l5.4,1.6c0.3-1,0.4-2.1,0.4-3.1c0-0.3,0-0.5,0-0.8
			l-5.6,0.5C-280.3,70.5-280.3,70.5-280.3,70.6"/>
		<path class="st8" d="M-293.1,75.3l-4.5,3.4c0.8,1,1.8,1.9,2.9,2.6l3-4.8C-292.2,76.2-292.7,75.8-293.1,75.3"/>
		<path class="st9" d="M-294.7,69.5c0.1-0.6,0.3-1.2,0.5-1.8l-5-2.5c-0.6,1.2-0.9,2.5-1.1,3.8L-294.7,69.5z"/>
		<path class="st10" d="M-281,81.7l-3-4.8c-0.5,0.3-1.1,0.5-1.7,0.7l1,5.5C-283.4,82.9-282.2,82.4-281,81.7"/>
		<path class="st11" d="M-280.7,73c-0.2,0.6-0.5,1.1-0.8,1.6l4.5,3.4c0.7-1.1,1.3-2.2,1.7-3.5L-280.7,73z"/>
		<path class="st12" d="M-286.5,77.8c-0.6,0.1-1.3,0.1-1.9,0l-1,5.5c1.3,0.2,2.7,0.2,4,0L-286.5,77.8z"/>
		<path class="st13" d="M-287.1,63.4c0.6,0,1.2,0.2,1.8,0.3l2-5.3c-1.2-0.4-2.5-0.7-3.8-0.7L-287.1,63.4z"/>
		<path class="st14" d="M-289.2,77.7c-0.6-0.1-1.2-0.4-1.8-0.7l-3,4.8c1.2,0.7,2.4,1.1,3.7,1.4L-289.2,77.7z"/>
		<path class="st15" d="M-289.7,63.7c0.6-0.2,1.2-0.3,1.8-0.3v-5.6c-1.3,0-2.6,0.3-3.9,0.7L-289.7,63.7z"/>
		<path class="st16" d="M-293.6,74.7c-0.4-0.5-0.6-1.1-0.9-1.7l-5.4,1.6c0.4,1.3,1,2.5,1.8,3.6L-293.6,74.7z"/>
		<path class="st17" d="M-292.1,64.9c0.5-0.4,1-0.7,1.6-0.9l-2-5.2c-1.2,0.5-2.3,1.2-3.3,2L-292.1,64.9z"/>
	</g>
	<path class="st0" d="M-305.7,50.4c0-0.4-0.1-0.7-0.4-1c-0.5-0.3-1-0.6-1.5-0.7c-0.6-0.2-1.2-0.4-1.8-0.7
		c-1.3-0.5-2.2-1.7-2.3-3.1c0-0.6,0.2-1.2,0.6-1.7c0.4-0.5,1-0.9,1.6-1.2c0.7-0.3,1.5-0.4,2.3-0.4c0.8,0,1.5,0.1,2.3,0.5
		c0.6,0.3,1.2,0.7,1.6,1.3c0.4,0.6,0.6,1.2,0.6,1.9h-2.8c0-0.4-0.1-0.8-0.4-1.1c-0.3-0.3-0.8-0.4-1.2-0.4c-0.4,0-0.8,0.1-1.2,0.3
		c-0.5,0.3-0.6,0.9-0.3,1.4c0.1,0.1,0.2,0.2,0.3,0.3c0.5,0.3,1.1,0.6,1.7,0.8c0.7,0.2,1.4,0.5,2,0.8c1.2,0.6,1.9,1.7,1.9,3
		c0,0.9-0.4,1.8-1.2,2.4c-0.9,0.6-2,0.9-3.2,0.9c-0.9,0-1.8-0.2-2.6-0.5c-0.7-0.3-1.3-0.8-1.7-1.4c-0.4-0.6-0.6-1.3-0.6-2h2.8
		c0,0.5,0.1,1,0.5,1.4c0.5,0.3,1,0.5,1.6,0.4c0.4,0,0.8-0.1,1.1-0.3C-305.8,51-305.7,50.7-305.7,50.4z"/>
	<path class="st0" d="M-292.1,41.8v7.7c0,0.8-0.2,1.6-0.6,2.3c-0.4,0.6-0.9,1.1-1.6,1.5c-0.8,0.3-1.6,0.5-2.5,0.5
		c-1.2,0.1-2.4-0.3-3.4-1.1c-0.8-0.8-1.3-1.9-1.3-3v-7.7h2.8v7.8c0,1.3,0.6,1.9,1.8,1.9c0.5,0,1-0.1,1.3-0.5c0.3-0.4,0.5-1,0.5-1.6
		v-7.6L-292.1,41.8z"/>
	<path class="st0" d="M-284.1,50.4c0-0.4-0.1-0.7-0.4-1c-0.5-0.3-1-0.6-1.5-0.7c-0.6-0.2-1.2-0.4-1.8-0.7
		c-1.3-0.5-2.2-1.7-2.3-3.1c0-0.6,0.2-1.2,0.6-1.7c0.4-0.5,1-0.9,1.6-1.2c0.7-0.3,1.5-0.4,2.3-0.4c0.8,0,1.5,0.1,2.3,0.5
		c0.6,0.3,1.2,0.7,1.6,1.3c0.4,0.6,0.6,1.2,0.6,1.9h-2.8c0-0.4-0.1-0.8-0.4-1.1c-0.3-0.3-0.8-0.4-1.2-0.4c-0.4,0-0.8,0.1-1.2,0.3
		c-0.5,0.3-0.6,0.9-0.3,1.4c0.1,0.1,0.2,0.2,0.3,0.3c0.5,0.3,1.1,0.6,1.7,0.8c0.7,0.2,1.4,0.5,2,0.8c1.2,0.6,1.9,1.7,1.9,3
		c0,0.9-0.4,1.8-1.2,2.4c-0.9,0.6-2,0.9-3.2,0.9c-0.9,0-1.8-0.2-2.6-0.5c-0.7-0.3-1.3-0.8-1.7-1.4c-0.4-0.6-0.6-1.3-0.6-2h2.8
		c0,0.5,0.1,1,0.5,1.4c0.5,0.3,1,0.5,1.6,0.4c0.4,0,0.8-0.1,1.1-0.3C-284.3,51-284.1,50.7-284.1,50.4z"/>
	<path class="st0" d="M-270.5,43.9h-3.5v9.5h-2.8v-9.5h-3.4v-2.2h9.8L-270.5,43.9z"/>
	<path class="st0" d="M-263.5,51.3h-3.9l-0.7,2.2h-3l4.3-11.7h2.7l4.3,11.7h-3L-263.5,51.3z M-266.7,49.1h2.5
		l-1.3-4.1L-266.7,49.1z"/>
	<path class="st0" d="M-255.7,53.5h-2.8V41.8h2.8V53.5z"/>
	<path class="st0" d="M-243.8,53.5h-2.8l-4.1-7.3v7.3h-2.8V41.8h2.8l4.1,7.3v-7.3h2.8V53.5z"/>
	<path class="st0" d="M-235.1,51.3h-3.9l-0.7,2.2h-3l4.3-11.7h2.7l4.3,11.7h-3L-235.1,51.3z M-238.3,49.1h2.5
		L-237,45L-238.3,49.1z"/>
	<path id="パス_5156" class="st0" d="M-230.4,53.5V41.8h4.2c1.2-0.1,2.4,0.2,3.4,0.8c0.8,0.5,1.2,1.5,1.2,2.4
		c0,0.5-0.1,1.1-0.4,1.6c-0.3,0.4-0.7,0.8-1.2,0.9c0.6,0.1,1.1,0.4,1.4,0.9c0.3,0.5,0.5,1,0.5,1.6c0.1,1-0.3,1.9-1.1,2.6
		c-1,0.6-2.1,1-3.2,0.9L-230.4,53.5z M-227.5,46.6h1.5c0.5,0,0.9-0.1,1.3-0.3c0.3-0.2,0.4-0.6,0.4-1c0-0.4-0.1-0.8-0.4-1.1
		c-0.4-0.3-0.9-0.4-1.4-0.3h-1.4L-227.5,46.6z M-227.5,48.5v2.8h1.8c0.4,0,0.8-0.1,1.2-0.3c0.3-0.2,0.4-0.6,0.4-1
		c0.1-0.7-0.4-1.4-1.1-1.5c-0.1,0-0.2,0-0.4,0L-227.5,48.5z"/>
	<path class="st0" d="M-216.8,51.3h4.9v2.2h-7.7V41.8h2.8L-216.8,51.3z"/>
	<path class="st0" d="M-203.2,48.5h-4.4v2.8h5.2v2.2h-8.1V41.8h8.1v2.2h-5.3v2.5h4.4L-203.2,48.5z"/>
	<path class="st0" d="M-311.8,69.3V57.8h3.7c1,0,1.9,0.2,2.7,0.7c0.8,0.5,1.5,1.1,1.9,1.9c0.5,0.9,0.7,1.8,0.7,2.8
		v0.5c0,1-0.2,2-0.7,2.8c-0.4,0.8-1.1,1.5-1.9,2c-0.8,0.5-1.8,0.7-2.7,0.7L-311.8,69.3z M-309,60v7.2h1c0.7,0,1.4-0.3,1.8-0.8
		c0.5-0.7,0.7-1.6,0.6-2.5v-0.5c0.1-0.9-0.2-1.8-0.6-2.5c-0.4-0.6-1.1-0.9-1.9-0.8H-309z"/>
	<path class="st0" d="M-294.8,64.4h-4v2.7h4.9v2.1h-7.6V57.8h7.6v2.1h-4.9v2.4h4V64.4z"/>
	<path class="st0" d="M-288,66.2l2.3-8.3h3.1l-3.9,11.5h-3l-3.8-11.5h3.1L-288,66.2z"/>
	<path class="st0" d="M-275,64.4h-4v2.7h4.8v2.1h-7.6V57.8h7.6v2.1h-4.8v2.4h4V64.4z"/>
	<path class="st0" d="M-270.5,67.2h4.4v2.1h-7.1V57.8h2.8V67.2z"/>
	<path class="st0" d="M-255.8,63.8c0,1-0.2,2-0.6,3c-0.4,0.8-1,1.5-1.8,2c-0.8,0.5-1.7,0.7-2.6,0.7
		c-0.9,0-1.8-0.2-2.6-0.7c-0.8-0.5-1.4-1.1-1.8-1.9c-0.4-0.9-0.7-1.9-0.7-2.9v-0.6c0-1,0.2-2,0.6-3c0.4-0.8,1-1.5,1.8-2
		c1.6-0.9,3.6-0.9,5.2,0c0.8,0.5,1.4,1.2,1.8,2c0.4,0.9,0.7,1.9,0.6,2.9L-255.8,63.8z M-258.6,63.3c0.1-0.9-0.1-1.8-0.6-2.6
		c-0.3-0.6-1-0.9-1.6-0.9c-1.4,0-2.1,1-2.2,3.1v0.8c-0.1,0.9,0.1,1.8,0.6,2.6c0.3,0.6,1,0.9,1.7,0.9c0.7,0,1.3-0.3,1.6-0.9
		c0.4-0.8,0.6-1.7,0.6-2.6L-258.6,63.3z"/>
	<path class="st0" d="M-252,65.4v3.9h-2.8V57.8h4.6c0.8,0,1.6,0.2,2.3,0.5c0.6,0.3,1.2,0.8,1.6,1.4
		c0.4,0.6,0.6,1.3,0.6,2c0,1-0.4,2-1.2,2.7c-0.9,0.7-2.1,1.1-3.3,1L-252,65.4z M-252,63.3h1.8c0.4,0,0.9-0.1,1.2-0.4
		c0.3-0.3,0.4-0.7,0.4-1.1c0-0.5-0.1-0.9-0.4-1.3c-0.3-0.3-0.7-0.5-1.2-0.5h-1.8L-252,63.3z"/>
	<path class="st0" d="M-241,57.8l2.6,8l2.6-8h3.6v11.5h-2.8v-2.7l0.3-5.5l-2.8,8.2h-1.8l-2.8-8.2l0.3,5.5v2.7h-2.8
		V57.8L-241,57.8z"/>
	<path class="st0" d="M-224.2,64.4h-4.1v2.7h4.9v2.1h-7.6V57.8h7.6v2.1h-4.9v2.4h4.1V64.4z"/>
	<path class="st0" d="M-212.9,69.3h-2.7l-4.1-7.1v7.1h-2.8V57.8h2.8l4.1,7.1v-7.1h2.8L-212.9,69.3z"/>
	<path class="st0" d="M-202.4,59.9h-3.4v9.3h-2.8v-9.3h-3.4v-2.1h9.6L-202.4,59.9z"/>
</g>
<g>
</g>
<g>
</g>
<g>
</g>
<g>
</g>
<g>
</g>
<g>
</g>
<g>
</g>
<g>
</g>
<g>
</g>
<g>
</g>
<g>
</g>
<g>
</g>
<g>
</g>
<g>
</g>
<g>
</g>
</svg>
