<svg xmlns="http://www.w3.org/2000/svg" xmlns:xlink="http://www.w3.org/1999/xlink" x="0px" y="0px" viewBox="0 0 561.1 431" style="enable-background:new 0 0 561.1 431;" xml:space="preserve">
<style type="text/css">
	.st0{fill:#E60000;}
	.st1{fill:#FFFFFF;}
</style>
<g>
	<g>
		<g transform="translate(635.348 278.108) rotate(167)">
			<g transform="translate(0 0)">
				<path class="st0" d="M493.3,84.1c-12.1,0-24.3,0.4-36.5,1.1c-47.9,2.7-95.3,11.1-141.2,25c-46.6,14.3-88.7,33.8-125.2,58.1
					c-38.7,25.8-70.3,56.4-93.7,91L8,388.2l3.6,2.5l88.6-129C181.4,141.8,343.5,88.5,492.8,88.5c35.2-0.1,70.3,3,105,9.2l155.9,33
					l0.9-4.2l-156-33C563.9,87.2,528.6,84,493.3,84.1z"/>
				<path class="st0" d="M105.1,249.6l-32.3-97.9l98.3,32.9L105.1,249.6z"/>
				<path class="st1" d="M186.1,176.2l-5.8-99.3l86.6,55.7L186.1,176.2z"/>
				<path class="st0" d="M281.6,124.1l20.3-96.9l66.6,71.7L281.6,124.1z"/>
				<path class="st1" d="M384.7,97.9l34.6-96l56.3,86.9L384.7,97.9z"/>
				<path class="st0" d="M489.7,85l58.5-85l33.3,92.8L489.7,85z"/>
				<path class="st1" d="M595.6,97.3l58.5-85l34.2,104.5L595.6,97.3z"/>
			</g>
		</g>
	</g>
</g>
</svg>
